<?xml version="1.0" encoding="utf-8"?>
<!-- Generator: Adobe Illustrator 16.0.0, SVG Export Plug-In . SVG Version: 6.00 Build 0)  -->
<!DOCTYPE svg PUBLIC "-//W3C//DTD SVG 1.1//EN" "http://www.w3.org/Graphics/SVG/1.1/DTD/svg11.dtd">
<svg version="1.1" id="Layer_1" xmlns="http://www.w3.org/2000/svg" xmlns:xlink="http://www.w3.org/1999/xlink" x="0px" y="0px"
	 width="82px" height="82px" viewBox="0 0 82 82" enable-background="new 0 0 82 82" xml:space="preserve">
<g>
	<path fill="#F4EDD3" d="M37.565,0.837c1.889-0.735,4.979-0.735,6.868,0c1.889,0.736,5.092,1.299,7.119,1.252
		c2.026-0.047,4.931,1.006,6.453,2.341c1.523,1.335,4.341,2.957,6.262,3.603c1.922,0.646,4.289,2.627,5.262,4.4
		c0.972,1.773,3.063,4.258,4.646,5.521s3.129,3.931,3.434,5.929c0.306,1.999,1.419,5.045,2.473,6.771
		c1.055,1.727,1.592,4.76,1.193,6.742c-0.399,1.982-0.399,5.225,0,7.207c0.398,1.981-0.139,5.016-1.193,6.742
		c-1.054,1.726-2.167,4.773-2.473,6.771c-0.305,1.998-1.851,4.666-3.434,5.928c-1.583,1.263-3.675,3.747-4.646,5.521
		c-0.973,1.773-3.34,3.754-5.262,4.401c-1.921,0.646-4.738,2.268-6.262,3.604c-1.522,1.335-4.427,2.388-6.453,2.341
		c-2.027-0.047-5.23,0.516-7.119,1.251c-1.889,0.736-4.979,0.736-6.868,0c-1.888-0.735-5.092-1.298-7.119-1.251
		c-2.027,0.047-4.932-1.006-6.454-2.341c-1.522-1.336-4.34-2.957-6.261-3.604c-1.921-0.647-4.289-2.628-5.261-4.401
		c-0.973-1.773-3.064-4.258-4.647-5.521c-1.583-1.262-3.128-3.93-3.434-5.928c-0.306-1.998-1.418-5.046-2.473-6.771
		c-1.054-1.727-1.591-4.761-1.192-6.742c0.398-1.982,0.398-5.225,0-7.207s0.138-5.016,1.192-6.742
		c1.054-1.726,2.167-4.773,2.473-6.771c0.305-1.998,1.851-4.666,3.434-5.929c1.583-1.263,3.675-3.747,4.647-5.521
		c0.972-1.773,3.34-3.754,5.261-4.4s4.738-2.268,6.261-3.603s4.427-2.389,6.454-2.341C32.473,2.136,35.677,1.573,37.565,0.837z"/>
</g>
<g>
	<path fill="#E5DCC1" d="M38.03,6.264c1.633-0.636,4.307-0.636,5.94,0c1.633,0.636,4.404,1.123,6.157,1.082
		c1.753-0.041,4.265,0.871,5.581,2.025c1.316,1.154,3.753,2.557,5.414,3.116c1.662,0.56,3.71,2.272,4.551,3.806
		c0.841,1.534,2.649,3.683,4.02,4.774c1.369,1.092,2.706,3.4,2.971,5.128c0.264,1.729,1.227,4.364,2.139,5.857
		c0.912,1.493,1.376,4.117,1.031,5.831c-0.346,1.714-0.346,4.519,0,6.231c0.345,1.714-0.119,4.338-1.031,5.832
		c-0.912,1.493-1.875,4.129-2.139,5.857c-0.265,1.728-1.602,4.035-2.971,5.127c-1.37,1.093-3.179,3.241-4.02,4.775
		c-0.841,1.533-2.889,3.246-4.551,3.805c-1.661,0.56-4.098,1.963-5.414,3.117s-3.828,2.066-5.581,2.025
		c-1.753-0.042-4.524,0.445-6.157,1.082c-1.634,0.637-4.307,0.637-5.94,0c-1.634-0.637-4.405-1.124-6.158-1.082
		c-1.753,0.041-4.265-0.871-5.582-2.025c-1.316-1.154-3.753-2.558-5.415-3.117c-1.661-0.559-3.709-2.271-4.55-3.805
		c-0.841-1.534-2.65-3.683-4.02-4.775c-1.369-1.092-2.706-3.399-2.97-5.127c-0.264-1.729-1.226-4.364-2.138-5.857
		c-0.912-1.494-1.376-4.118-1.032-5.832c0.345-1.713,0.345-4.518,0-6.231c-0.344-1.714,0.12-4.338,1.032-5.831
		c0.912-1.493,1.875-4.129,2.138-5.857c0.264-1.728,1.601-4.036,2.97-5.128c1.37-1.092,3.178-3.24,4.02-4.774
		c0.841-1.534,2.889-3.246,4.55-3.806c1.662-0.56,4.099-1.962,5.415-3.116c1.317-1.155,3.829-2.066,5.582-2.025
		C33.625,7.386,36.396,6.899,38.03,6.264z"/>
</g>
<g>
	<path fill="#BD4949" d="M65.865,34.793c-1.934-1.928-4.545-2.771-7.07-2.531c-2.311,0.035-4.634-0.826-6.397-2.584
		c-1.885-1.879-2.741-4.395-2.571-6.852l-0.029-0.028c0.103-2.372-0.753-4.775-2.57-6.586c-3.438-3.427-9.014-3.427-12.453,0
		c-3.439,3.427-3.44,8.986,0,12.414c1.803,1.798,4.197,2.652,6.56,2.564l0.023,0.023c2.486-0.187,5.033,0.666,6.933,2.56
		c1.749,1.743,2.611,4.032,2.594,6.315c-0.266,2.541,0.576,5.172,2.53,7.119c3.438,3.428,9.015,3.428,12.452,0
		C69.306,43.778,69.306,38.221,65.865,34.793z M39.549,23.865c-0.801-0.798-0.801-2.093,0-2.891c0.801-0.798,2.1-0.798,2.902,0
		c0.801,0.798,0.801,2.093-0.001,2.891C41.649,24.664,40.351,24.664,39.549,23.865z M58.19,42.446
		c-0.802-0.799-0.802-2.093-0.001-2.892c0.801-0.798,2.101-0.798,2.9,0c0.801,0.799,0.801,2.093-0.001,2.892
		C60.289,43.244,58.99,43.244,58.19,42.446z"/>
	<path fill="#A53635" d="M34.773,16.213c-1.935,1.929-2.781,4.531-2.539,7.049c0.035,2.304-0.829,4.619-2.592,6.377
		c-1.886,1.878-4.409,2.733-6.875,2.564l-0.027,0.028c-2.379-0.103-4.791,0.752-6.607,2.562c-3.438,3.428-3.438,8.986,0,12.415
		c3.439,3.427,9.014,3.427,12.454-0.001c1.804-1.799,2.662-4.184,2.572-6.54l0.023-0.023c-0.188-2.476,0.668-5.017,2.568-6.91
		c1.748-1.743,4.044-2.603,6.335-2.585c2.549,0.264,5.189-0.577,7.141-2.523c3.438-3.428,3.438-8.986,0-12.414
		S38.212,12.786,34.773,16.213z M23.811,42.446c-0.801,0.798-2.1,0.798-2.9,0c-0.801-0.798-0.801-2.093,0-2.892
		c0.801-0.798,2.099-0.798,2.9,0C24.611,40.353,24.611,41.647,23.811,42.446z M42.451,23.865c-0.802,0.798-2.101,0.798-2.902,0
		c-0.801-0.798-0.801-2.093,0-2.891c0.801-0.798,2.1-0.798,2.902,0C43.252,21.772,43.252,23.067,42.451,23.865z"/>
	<path fill="#E8747A" d="M47.227,53.373c-1.935-1.928-4.545-2.771-7.072-2.53c-2.311,0.035-4.633-0.826-6.397-2.584
		c-1.885-1.879-2.742-4.394-2.572-6.852l-0.028-0.028c0.102-2.371-0.754-4.775-2.571-6.585c-3.439-3.428-9.014-3.428-12.454,0
		c-3.438,3.428-3.438,8.985,0,12.414c1.804,1.799,4.196,2.653,6.561,2.564l0.023,0.023c2.485-0.188,5.032,0.665,6.932,2.56
		c1.748,1.741,2.611,4.03,2.593,6.313c-0.264,2.54,0.579,5.173,2.532,7.118c3.439,3.43,9.015,3.43,12.453,0
		C50.665,62.359,50.665,56.803,47.227,53.373z M20.91,42.446c-0.801-0.799-0.801-2.093,0-2.892s2.099-0.799,2.9,0
		c0.801,0.799,0.8,2.093,0,2.892C23.009,43.244,21.71,43.244,20.91,42.446z M39.549,61.026c-0.801-0.799-0.801-2.093,0-2.892
		c0.801-0.799,2.1-0.799,2.902,0c0.801,0.799,0.801,2.093-0.001,2.892C41.649,61.824,40.351,61.824,39.549,61.026z"/>
	<path fill="#D35E5E" d="M53.374,34.754c-1.934,1.928-2.78,4.531-2.539,7.048c0.036,2.305-0.827,4.62-2.591,6.377
		c-1.886,1.88-4.408,2.733-6.875,2.564l-0.028,0.029c-2.379-0.104-4.79,0.75-6.606,2.562c-3.439,3.428-3.439,8.985,0,12.413
		c3.439,3.428,9.015,3.428,12.454,0c1.804-1.799,2.661-4.184,2.573-6.54l0.022-0.022c-0.187-2.477,0.668-5.017,2.568-6.91
		c1.747-1.742,4.044-2.602,6.335-2.584c2.548,0.263,5.188-0.578,7.141-2.523c3.438-3.428,3.438-8.986,0-12.414
		C62.388,31.326,56.813,31.326,53.374,34.754z M42.411,60.986c-0.801,0.8-2.1,0.8-2.901,0c-0.801-0.798-0.801-2.092,0-2.891
		c0.801-0.799,2.1-0.799,2.901,0S43.212,60.188,42.411,60.986z M61.052,42.405c-0.802,0.8-2.101,0.8-2.901,0
		c-0.801-0.796-0.801-2.092-0.001-2.89c0.802-0.799,2.101-0.798,2.902,0C61.853,40.314,61.853,41.609,61.052,42.405z"/>
	<path fill="#BD4949" d="M65.865,34.793c-1.934-1.928-4.545-2.771-7.07-2.531c-2.311,0.035-4.634-0.826-6.397-2.584
		c-1.885-1.879-2.741-4.395-2.571-6.852c0,0-0.038,3.193-2.478,5.675c-2.509,2.547-5.992,2.711-5.992,2.711
		c2.486-0.187,5.033,0.666,6.933,2.56c1.749,1.743,2.611,4.032,2.594,6.315c-0.266,2.541,0.576,5.172,2.53,7.119
		c3.438,3.428,9.015,3.428,12.452,0C69.306,43.778,69.306,38.221,65.865,34.793z M61.052,42.405c-0.802,0.8-2.101,0.8-2.901,0
		c-0.801-0.796-0.801-2.092-0.001-2.89c0.802-0.799,2.101-0.798,2.902,0C61.853,40.314,61.853,41.609,61.052,42.405z"/>
</g>
</svg>
